^C:\USERS\DATTA\DESKTOP\THEGIT\SRCQT\CALIBRATIONMOD.CPP
/c /IC:\Users\Datta\Desktop\thegit\buildARUCO /IC:\Users\Datta\Desktop\thegit /I"C:\Users\Datta\Desktop\thegit\Libs\eigen-eigen-10219c95fe65" /IF:\Sankar\gitOpenCV\opencv2.4\x64_QT_2\install\include /IF:\Sankar\gitOpenCV\opencv2.4\x64_QT_2\install\include\opencv /IC:\Users\Datta\Desktop\thegit\Libs\DetectCodedEllipsesLibrary\include /I"C:\Users\Datta\Desktop\thegit\glfw-3.1.bin.WIN64\include" /I"C:\Users\Datta\Desktop\thegit\glew-1.12.0-win32\glew-1.12.0\include" /IC:\Users\Datta\Desktop\thegit\glm /I"C:\Users\Datta\Desktop\thegit\Soil\Simple OpenGL Image Library\src" /Zi /nologo /W3 /WX- /Od /Ob0 /D WIN32 /D _WINDOWS /D _DEBUG /D UNICODE /D _UNICODE /D GLEW_STATIC /D "CMAKE_INTDIR=\"Debug\"" /D _UNICODE /D UNICODE /Gm- /EHsc /RTC1 /MDd /GS /fp:precise /Zc:wchar_t /Zc:forScope /GR /Fo"GITECODOG.DIR\DEBUG\\" /Fd"GITECODOG.DIR\DEBUG\VC120.PDB" /Gd /TP C:\USERS\DATTA\DESKTOP\THEGIT\SRCQT\CALIBRATIONMOD.CPP
^C:\USERS\DATTA\DESKTOP\THEGIT\SRCQT\CALIBRATIONMODE.CPP
/c /IC:\Users\Datta\Desktop\thegit\buildARUCO /IC:\Users\Datta\Desktop\thegit /I"C:\Users\Datta\Desktop\thegit\Libs\eigen-eigen-10219c95fe65" /IF:\Sankar\gitOpenCV\opencv2.4\x64_QT_2\install\include /IF:\Sankar\gitOpenCV\opencv2.4\x64_QT_2\install\include\opencv /IC:\Users\Datta\Desktop\thegit\Libs\DetectCodedEllipsesLibrary\include /I"C:\Users\Datta\Desktop\thegit\glfw-3.1.bin.WIN64\include" /I"C:\Users\Datta\Desktop\thegit\glew-1.12.0-win32\glew-1.12.0\include" /IC:\Users\Datta\Desktop\thegit\glm /I"C:\Users\Datta\Desktop\thegit\Soil\Simple OpenGL Image Library\src" /Zi /nologo /W3 /WX- /Od /Ob0 /D WIN32 /D _WINDOWS /D _DEBUG /D UNICODE /D _UNICODE /D GLEW_STATIC /D "CMAKE_INTDIR=\"Debug\"" /D _UNICODE /D UNICODE /Gm- /EHsc /RTC1 /MDd /GS /fp:precise /Zc:wchar_t /Zc:forScope /GR /Fo"GITECODOG.DIR\DEBUG\\" /Fd"GITECODOG.DIR\DEBUG\VC120.PDB" /Gd /TP C:\USERS\DATTA\DESKTOP\THEGIT\SRCQT\CALIBRATIONMODE.CPP
^C:\USERS\DATTA\DESKTOP\THEGIT\SRCQT\CAMCALIB.CPP
/c /IC:\Users\Datta\Desktop\thegit\buildARUCO /IC:\Users\Datta\Desktop\thegit /I"C:\Users\Datta\Desktop\thegit\Libs\eigen-eigen-10219c95fe65" /IF:\Sankar\gitOpenCV\opencv2.4\x64_QT_2\install\include /IF:\Sankar\gitOpenCV\opencv2.4\x64_QT_2\install\include\opencv /IC:\Users\Datta\Desktop\thegit\Libs\DetectCodedEllipsesLibrary\include /I"C:\Users\Datta\Desktop\thegit\glfw-3.1.bin.WIN64\include" /I"C:\Users\Datta\Desktop\thegit\glew-1.12.0-win32\glew-1.12.0\include" /IC:\Users\Datta\Desktop\thegit\glm /I"C:\Users\Datta\Desktop\thegit\Soil\Simple OpenGL Image Library\src" /Zi /nologo /W3 /WX- /Od /Ob0 /D WIN32 /D _WINDOWS /D _DEBUG /D UNICODE /D _UNICODE /D GLEW_STATIC /D "CMAKE_INTDIR=\"Debug\"" /D _UNICODE /D UNICODE /Gm- /EHsc /RTC1 /MDd /GS /fp:precise /Zc:wchar_t /Zc:forScope /GR /Fo"GITECODOG.DIR\DEBUG\\" /Fd"GITECODOG.DIR\DEBUG\VC120.PDB" /Gd /TP C:\USERS\DATTA\DESKTOP\THEGIT\SRCQT\CAMCALIB.CPP
^C:\USERS\DATTA\DESKTOP\THEGIT\SRCQT\COLORSEGMENTATION.CPP
/c /IC:\Users\Datta\Desktop\thegit\buildARUCO /IC:\Users\Datta\Desktop\thegit /I"C:\Users\Datta\Desktop\thegit\Libs\eigen-eigen-10219c95fe65" /IF:\Sankar\gitOpenCV\opencv2.4\x64_QT_2\install\include /IF:\Sankar\gitOpenCV\opencv2.4\x64_QT_2\install\include\opencv /IC:\Users\Datta\Desktop\thegit\Libs\DetectCodedEllipsesLibrary\include /I"C:\Users\Datta\Desktop\thegit\glfw-3.1.bin.WIN64\include" /I"C:\Users\Datta\Desktop\thegit\glew-1.12.0-win32\glew-1.12.0\include" /IC:\Users\Datta\Desktop\thegit\glm /I"C:\Users\Datta\Desktop\thegit\Soil\Simple OpenGL Image Library\src" /Zi /nologo /W3 /WX- /Od /Ob0 /D WIN32 /D _WINDOWS /D _DEBUG /D UNICODE /D _UNICODE /D GLEW_STATIC /D "CMAKE_INTDIR=\"Debug\"" /D _UNICODE /D UNICODE /Gm- /EHsc /RTC1 /MDd /GS /fp:precise /Zc:wchar_t /Zc:forScope /GR /Fo"GITECODOG.DIR\DEBUG\\" /Fd"GITECODOG.DIR\DEBUG\VC120.PDB" /Gd /TP C:\USERS\DATTA\DESKTOP\THEGIT\SRCQT\COLORSEGMENTATION.CPP
^C:\USERS\DATTA\DESKTOP\THEGIT\SRCQT\CVTOGL.CPP
/c /IC:\Users\Datta\Desktop\thegit\buildARUCO /IC:\Users\Datta\Desktop\thegit /I"C:\Users\Datta\Desktop\thegit\Libs\eigen-eigen-10219c95fe65" /IF:\Sankar\gitOpenCV\opencv2.4\x64_QT_2\install\include /IF:\Sankar\gitOpenCV\opencv2.4\x64_QT_2\install\include\opencv /IC:\Users\Datta\Desktop\thegit\Libs\DetectCodedEllipsesLibrary\include /I"C:\Users\Datta\Desktop\thegit\glfw-3.1.bin.WIN64\include" /I"C:\Users\Datta\Desktop\thegit\glew-1.12.0-win32\glew-1.12.0\include" /IC:\Users\Datta\Desktop\thegit\glm /I"C:\Users\Datta\Desktop\thegit\Soil\Simple OpenGL Image Library\src" /Zi /nologo /W3 /WX- /Od /Ob0 /D WIN32 /D _WINDOWS /D _DEBUG /D UNICODE /D _UNICODE /D GLEW_STATIC /D "CMAKE_INTDIR=\"Debug\"" /D _UNICODE /D UNICODE /Gm- /EHsc /RTC1 /MDd /GS /fp:precise /Zc:wchar_t /Zc:forScope /GR /Fo"GITECODOG.DIR\DEBUG\\" /Fd"GITECODOG.DIR\DEBUG\VC120.PDB" /Gd /TP C:\USERS\DATTA\DESKTOP\THEGIT\SRCQT\CVTOGL.CPP
^C:\USERS\DATTA\DESKTOP\THEGIT\SRCQT\EXAMPLEOPENCV.CPP
/c /IC:\Users\Datta\Desktop\thegit\buildARUCO /IC:\Users\Datta\Desktop\thegit /I"C:\Users\Datta\Desktop\thegit\Libs\eigen-eigen-10219c95fe65" /IF:\Sankar\gitOpenCV\opencv2.4\x64_QT_2\install\include /IF:\Sankar\gitOpenCV\opencv2.4\x64_QT_2\install\include\opencv /IC:\Users\Datta\Desktop\thegit\Libs\DetectCodedEllipsesLibrary\include /I"C:\Users\Datta\Desktop\thegit\glfw-3.1.bin.WIN64\include" /I"C:\Users\Datta\Desktop\thegit\glew-1.12.0-win32\glew-1.12.0\include" /IC:\Users\Datta\Desktop\thegit\glm /I"C:\Users\Datta\Desktop\thegit\Soil\Simple OpenGL Image Library\src" /Zi /nologo /W3 /WX- /Od /Ob0 /D WIN32 /D _WINDOWS /D _DEBUG /D UNICODE /D _UNICODE /D GLEW_STATIC /D "CMAKE_INTDIR=\"Debug\"" /D _UNICODE /D UNICODE /Gm- /EHsc /RTC1 /MDd /GS /fp:precise /Zc:wchar_t /Zc:forScope /GR /Fo"GITECODOG.DIR\DEBUG\\" /Fd"GITECODOG.DIR\DEBUG\VC120.PDB" /Gd /TP C:\USERS\DATTA\DESKTOP\THEGIT\SRCQT\EXAMPLEOPENCV.CPP
^C:\USERS\DATTA\DESKTOP\THEGIT\SRCQT\GEOMETRY.CPP
/c /IC:\Users\Datta\Desktop\thegit\buildARUCO /IC:\Users\Datta\Desktop\thegit /I"C:\Users\Datta\Desktop\thegit\Libs\eigen-eigen-10219c95fe65" /IF:\Sankar\gitOpenCV\opencv2.4\x64_QT_2\install\include /IF:\Sankar\gitOpenCV\opencv2.4\x64_QT_2\install\include\opencv /IC:\Users\Datta\Desktop\thegit\Libs\DetectCodedEllipsesLibrary\include /I"C:\Users\Datta\Desktop\thegit\glfw-3.1.bin.WIN64\include" /I"C:\Users\Datta\Desktop\thegit\glew-1.12.0-win32\glew-1.12.0\include" /IC:\Users\Datta\Desktop\thegit\glm /I"C:\Users\Datta\Desktop\thegit\Soil\Simple OpenGL Image Library\src" /Zi /nologo /W3 /WX- /Od /Ob0 /D WIN32 /D _WINDOWS /D _DEBUG /D UNICODE /D _UNICODE /D GLEW_STATIC /D "CMAKE_INTDIR=\"Debug\"" /D _UNICODE /D UNICODE /Gm- /EHsc /RTC1 /MDd /GS /fp:precise /Zc:wchar_t /Zc:forScope /GR /Fo"GITECODOG.DIR\DEBUG\\" /Fd"GITECODOG.DIR\DEBUG\VC120.PDB" /Gd /TP C:\USERS\DATTA\DESKTOP\THEGIT\SRCQT\GEOMETRY.CPP
^C:\USERS\DATTA\DESKTOP\THEGIT\SRCQT\GLCENTURAI.CPP
/c /IC:\Users\Datta\Desktop\thegit\buildARUCO /IC:\Users\Datta\Desktop\thegit /I"C:\Users\Datta\Desktop\thegit\Libs\eigen-eigen-10219c95fe65" /IF:\Sankar\gitOpenCV\opencv2.4\x64_QT_2\install\include /IF:\Sankar\gitOpenCV\opencv2.4\x64_QT_2\install\include\opencv /IC:\Users\Datta\Desktop\thegit\Libs\DetectCodedEllipsesLibrary\include /I"C:\Users\Datta\Desktop\thegit\glfw-3.1.bin.WIN64\include" /I"C:\Users\Datta\Desktop\thegit\glew-1.12.0-win32\glew-1.12.0\include" /IC:\Users\Datta\Desktop\thegit\glm /I"C:\Users\Datta\Desktop\thegit\Soil\Simple OpenGL Image Library\src" /Zi /nologo /W3 /WX- /Od /Ob0 /D WIN32 /D _WINDOWS /D _DEBUG /D UNICODE /D _UNICODE /D GLEW_STATIC /D "CMAKE_INTDIR=\"Debug\"" /D _UNICODE /D UNICODE /Gm- /EHsc /RTC1 /MDd /GS /fp:precise /Zc:wchar_t /Zc:forScope /GR /Fo"GITECODOG.DIR\DEBUG\\" /Fd"GITECODOG.DIR\DEBUG\VC120.PDB" /Gd /TP C:\USERS\DATTA\DESKTOP\THEGIT\SRCQT\GLCENTURAI.CPP
^C:\USERS\DATTA\DESKTOP\THEGIT\SRCQT\GLDRAWS.CPP
/c /IC:\Users\Datta\Desktop\thegit\buildARUCO /IC:\Users\Datta\Desktop\thegit /I"C:\Users\Datta\Desktop\thegit\Libs\eigen-eigen-10219c95fe65" /IF:\Sankar\gitOpenCV\opencv2.4\x64_QT_2\install\include /IF:\Sankar\gitOpenCV\opencv2.4\x64_QT_2\install\include\opencv /IC:\Users\Datta\Desktop\thegit\Libs\DetectCodedEllipsesLibrary\include /I"C:\Users\Datta\Desktop\thegit\glfw-3.1.bin.WIN64\include" /I"C:\Users\Datta\Desktop\thegit\glew-1.12.0-win32\glew-1.12.0\include" /IC:\Users\Datta\Desktop\thegit\glm /I"C:\Users\Datta\Desktop\thegit\Soil\Simple OpenGL Image Library\src" /Zi /nologo /W3 /WX- /Od /Ob0 /D WIN32 /D _WINDOWS /D _DEBUG /D UNICODE /D _UNICODE /D GLEW_STATIC /D "CMAKE_INTDIR=\"Debug\"" /D _UNICODE /D UNICODE /Gm- /EHsc /RTC1 /MDd /GS /fp:precise /Zc:wchar_t /Zc:forScope /GR /Fo"GITECODOG.DIR\DEBUG\\" /Fd"GITECODOG.DIR\DEBUG\VC120.PDB" /Gd /TP C:\USERS\DATTA\DESKTOP\THEGIT\SRCQT\GLDRAWS.CPP
^C:\USERS\DATTA\DESKTOP\THEGIT\SRCQT\IMREADBASICS.CPP
/c /IC:\Users\Datta\Desktop\thegit\buildARUCO /IC:\Users\Datta\Desktop\thegit /I"C:\Users\Datta\Desktop\thegit\Libs\eigen-eigen-10219c95fe65" /IF:\Sankar\gitOpenCV\opencv2.4\x64_QT_2\install\include /IF:\Sankar\gitOpenCV\opencv2.4\x64_QT_2\install\include\opencv /IC:\Users\Datta\Desktop\thegit\Libs\DetectCodedEllipsesLibrary\include /I"C:\Users\Datta\Desktop\thegit\glfw-3.1.bin.WIN64\include" /I"C:\Users\Datta\Desktop\thegit\glew-1.12.0-win32\glew-1.12.0\include" /IC:\Users\Datta\Desktop\thegit\glm /I"C:\Users\Datta\Desktop\thegit\Soil\Simple OpenGL Image Library\src" /Zi /nologo /W3 /WX- /Od /Ob0 /D WIN32 /D _WINDOWS /D _DEBUG /D UNICODE /D _UNICODE /D GLEW_STATIC /D "CMAKE_INTDIR=\"Debug\"" /D _UNICODE /D UNICODE /Gm- /EHsc /RTC1 /MDd /GS /fp:precise /Zc:wchar_t /Zc:forScope /GR /Fo"GITECODOG.DIR\DEBUG\\" /Fd"GITECODOG.DIR\DEBUG\VC120.PDB" /Gd /TP C:\USERS\DATTA\DESKTOP\THEGIT\SRCQT\IMREADBASICS.CPP
^C:\USERS\DATTA\DESKTOP\THEGIT\SRCQT\MAIN2.CPP
/c /IC:\Users\Datta\Desktop\thegit\buildARUCO /IC:\Users\Datta\Desktop\thegit /I"C:\Users\Datta\Desktop\thegit\Libs\eigen-eigen-10219c95fe65" /IF:\Sankar\gitOpenCV\opencv2.4\x64_QT_2\install\include /IF:\Sankar\gitOpenCV\opencv2.4\x64_QT_2\install\include\opencv /IC:\Users\Datta\Desktop\thegit\Libs\DetectCodedEllipsesLibrary\include /I"C:\Users\Datta\Desktop\thegit\glfw-3.1.bin.WIN64\include" /I"C:\Users\Datta\Desktop\thegit\glew-1.12.0-win32\glew-1.12.0\include" /IC:\Users\Datta\Desktop\thegit\glm /I"C:\Users\Datta\Desktop\thegit\Soil\Simple OpenGL Image Library\src" /Zi /nologo /W3 /WX- /Od /Ob0 /D WIN32 /D _WINDOWS /D _DEBUG /D UNICODE /D _UNICODE /D GLEW_STATIC /D "CMAKE_INTDIR=\"Debug\"" /D _UNICODE /D UNICODE /Gm- /EHsc /RTC1 /MDd /GS /fp:precise /Zc:wchar_t /Zc:forScope /GR /Fo"GITECODOG.DIR\DEBUG\\" /Fd"GITECODOG.DIR\DEBUG\VC120.PDB" /Gd /TP C:\USERS\DATTA\DESKTOP\THEGIT\SRCQT\MAIN2.CPP
^C:\USERS\DATTA\DESKTOP\THEGIT\SRCQT\MAINCALL.CPP
/c /IC:\Users\Datta\Desktop\thegit\buildARUCO /IC:\Users\Datta\Desktop\thegit /I"C:\Users\Datta\Desktop\thegit\Libs\eigen-eigen-10219c95fe65" /IF:\Sankar\gitOpenCV\opencv2.4\x64_QT_2\install\include /IF:\Sankar\gitOpenCV\opencv2.4\x64_QT_2\install\include\opencv /IC:\Users\Datta\Desktop\thegit\Libs\DetectCodedEllipsesLibrary\include /I"C:\Users\Datta\Desktop\thegit\glfw-3.1.bin.WIN64\include" /I"C:\Users\Datta\Desktop\thegit\glew-1.12.0-win32\glew-1.12.0\include" /IC:\Users\Datta\Desktop\thegit\glm /I"C:\Users\Datta\Desktop\thegit\Soil\Simple OpenGL Image Library\src" /Zi /nologo /W3 /WX- /Od /Ob0 /D WIN32 /D _WINDOWS /D _DEBUG /D UNICODE /D _UNICODE /D GLEW_STATIC /D "CMAKE_INTDIR=\"Debug\"" /D _UNICODE /D UNICODE /Gm- /EHsc /RTC1 /MDd /GS /fp:precise /Zc:wchar_t /Zc:forScope /GR /Fo"GITECODOG.DIR\DEBUG\\" /Fd"GITECODOG.DIR\DEBUG\VC120.PDB" /Gd /TP C:\USERS\DATTA\DESKTOP\THEGIT\SRCQT\MAINCALL.CPP
^C:\USERS\DATTA\DESKTOP\THEGIT\SRCQT\PCCLOCK.CPP
/c /IC:\Users\Datta\Desktop\thegit\buildARUCO /IC:\Users\Datta\Desktop\thegit /I"C:\Users\Datta\Desktop\thegit\Libs\eigen-eigen-10219c95fe65" /IF:\Sankar\gitOpenCV\opencv2.4\x64_QT_2\install\include /IF:\Sankar\gitOpenCV\opencv2.4\x64_QT_2\install\include\opencv /IC:\Users\Datta\Desktop\thegit\Libs\DetectCodedEllipsesLibrary\include /I"C:\Users\Datta\Desktop\thegit\glfw-3.1.bin.WIN64\include" /I"C:\Users\Datta\Desktop\thegit\glew-1.12.0-win32\glew-1.12.0\include" /IC:\Users\Datta\Desktop\thegit\glm /I"C:\Users\Datta\Desktop\thegit\Soil\Simple OpenGL Image Library\src" /Zi /nologo /W3 /WX- /Od /Ob0 /D WIN32 /D _WINDOWS /D _DEBUG /D UNICODE /D _UNICODE /D GLEW_STATIC /D "CMAKE_INTDIR=\"Debug\"" /D _UNICODE /D UNICODE /Gm- /EHsc /RTC1 /MDd /GS /fp:precise /Zc:wchar_t /Zc:forScope /GR /Fo"GITECODOG.DIR\DEBUG\\" /Fd"GITECODOG.DIR\DEBUG\VC120.PDB" /Gd /TP C:\USERS\DATTA\DESKTOP\THEGIT\SRCQT\PCCLOCK.CPP
^C:\USERS\DATTA\DESKTOP\THEGIT\SRCQT\UTILS.CPP
/c /IC:\Users\Datta\Desktop\thegit\buildARUCO /IC:\Users\Datta\Desktop\thegit /I"C:\Users\Datta\Desktop\thegit\Libs\eigen-eigen-10219c95fe65" /IF:\Sankar\gitOpenCV\opencv2.4\x64_QT_2\install\include /IF:\Sankar\gitOpenCV\opencv2.4\x64_QT_2\install\include\opencv /IC:\Users\Datta\Desktop\thegit\Libs\DetectCodedEllipsesLibrary\include /I"C:\Users\Datta\Desktop\thegit\glfw-3.1.bin.WIN64\include" /I"C:\Users\Datta\Desktop\thegit\glew-1.12.0-win32\glew-1.12.0\include" /IC:\Users\Datta\Desktop\thegit\glm /I"C:\Users\Datta\Desktop\thegit\Soil\Simple OpenGL Image Library\src" /Zi /nologo /W3 /WX- /Od /Ob0 /D WIN32 /D _WINDOWS /D _DEBUG /D UNICODE /D _UNICODE /D GLEW_STATIC /D "CMAKE_INTDIR=\"Debug\"" /D _UNICODE /D UNICODE /Gm- /EHsc /RTC1 /MDd /GS /fp:precise /Zc:wchar_t /Zc:forScope /GR /Fo"GITECODOG.DIR\DEBUG\\" /Fd"GITECODOG.DIR\DEBUG\VC120.PDB" /Gd /TP C:\USERS\DATTA\DESKTOP\THEGIT\SRCQT\UTILS.CPP
^C:\USERS\DATTA\DESKTOP\THEGIT\SRCQT\GLMODEL.CPP
/c /IC:\Users\Datta\Desktop\thegit\buildARUCO /IC:\Users\Datta\Desktop\thegit /I"C:\Users\Datta\Desktop\thegit\Libs\eigen-eigen-10219c95fe65" /IF:\Sankar\gitOpenCV\opencv2.4\x64_QT_2\install\include /IF:\Sankar\gitOpenCV\opencv2.4\x64_QT_2\install\include\opencv /IC:\Users\Datta\Desktop\thegit\Libs\DetectCodedEllipsesLibrary\include /I"C:\Users\Datta\Desktop\thegit\glfw-3.1.bin.WIN64\include" /I"C:\Users\Datta\Desktop\thegit\glew-1.12.0-win32\glew-1.12.0\include" /IC:\Users\Datta\Desktop\thegit\glm /I"C:\Users\Datta\Desktop\thegit\Soil\Simple OpenGL Image Library\src" /Zi /nologo /W3 /WX- /Od /Ob0 /D WIN32 /D _WINDOWS /D _DEBUG /D UNICODE /D _UNICODE /D GLEW_STATIC /D "CMAKE_INTDIR=\"Debug\"" /D _UNICODE /D UNICODE /Gm- /EHsc /RTC1 /MDd /GS /fp:precise /Zc:wchar_t /Zc:forScope /GR /Fo"GITECODOG.DIR\DEBUG\\" /Fd"GITECODOG.DIR\DEBUG\VC120.PDB" /Gd /TP C:\USERS\DATTA\DESKTOP\THEGIT\SRCQT\GLMODEL.CPP
