^D:\THESIS\SOIL\SIMPLE OPENGL IMAGE LIBRARY\SRC\IMAGE_DXT.C|D:\THESIS\SOIL\SIMPLE OPENGL IMAGE LIBRARY\SRC\IMAGE_HELPER.C|D:\THESIS\SOIL\SIMPLE OPENGL IMAGE LIBRARY\SRC\SOIL.C|D:\THESIS\SOIL\SIMPLE OPENGL IMAGE LIBRARY\SRC\STB_IMAGE_AUG.C
D:\THESIS\SOIL\SIMPLE OPENGL IMAGE LIBRARY\PROJECTS\VC8\X64\DEBUG\STB_IMAGE_AUG.OBJ
D:\THESIS\SOIL\SIMPLE OPENGL IMAGE LIBRARY\PROJECTS\VC8\X64\DEBUG\SOIL.OBJ
D:\THESIS\SOIL\SIMPLE OPENGL IMAGE LIBRARY\PROJECTS\VC8\X64\DEBUG\IMAGE_HELPER.OBJ
D:\THESIS\SOIL\SIMPLE OPENGL IMAGE LIBRARY\PROJECTS\VC8\X64\DEBUG\IMAGE_DXT.OBJ
^D:\THESIS\SOIL\SIMPLE OPENGL IMAGE LIBRARY\SRC\IMAGE_DXT.C
D:\THESIS\SOIL\SIMPLE OPENGL IMAGE LIBRARY\PROJECTS\VC8\X64\DEBUG\VC110.PDB
^D:\THESIS\SOIL\SIMPLE OPENGL IMAGE LIBRARY\SRC\IMAGE_HELPER.C
D:\THESIS\SOIL\SIMPLE OPENGL IMAGE LIBRARY\PROJECTS\VC8\X64\DEBUG\VC110.PDB
^D:\THESIS\SOIL\SIMPLE OPENGL IMAGE LIBRARY\SRC\SOIL.C
D:\THESIS\SOIL\SIMPLE OPENGL IMAGE LIBRARY\PROJECTS\VC8\X64\DEBUG\VC110.PDB
^D:\THESIS\SOIL\SIMPLE OPENGL IMAGE LIBRARY\SRC\STB_IMAGE_AUG.C
D:\THESIS\SOIL\SIMPLE OPENGL IMAGE LIBRARY\PROJECTS\VC8\X64\DEBUG\VC110.PDB
