^D:\THESIS\SOIL\SIMPLE OPENGL IMAGE LIBRARY\PROJECTS\VC8\X64\DEBUG\IMAGE_DXT.OBJ|D:\THESIS\SOIL\SIMPLE OPENGL IMAGE LIBRARY\PROJECTS\VC8\X64\DEBUG\IMAGE_HELPER.OBJ|D:\THESIS\SOIL\SIMPLE OPENGL IMAGE LIBRARY\PROJECTS\VC8\X64\DEBUG\SOIL.OBJ|D:\THESIS\SOIL\SIMPLE OPENGL IMAGE LIBRARY\PROJECTS\VC8\X64\DEBUG\STB_IMAGE_AUG.OBJ
C:\WINDOWS\SYSTEM32\TZRES.DLL
D:\THESIS\SOIL\SIMPLE OPENGL IMAGE LIBRARY\PROJECTS\VC8\X64\DEBUG\IMAGE_DXT.OBJ
D:\THESIS\SOIL\SIMPLE OPENGL IMAGE LIBRARY\PROJECTS\VC8\X64\DEBUG\IMAGE_HELPER.OBJ
D:\THESIS\SOIL\SIMPLE OPENGL IMAGE LIBRARY\PROJECTS\VC8\X64\DEBUG\SOIL.OBJ
D:\THESIS\SOIL\SIMPLE OPENGL IMAGE LIBRARY\PROJECTS\VC8\X64\DEBUG\STB_IMAGE_AUG.OBJ
C:\WINDOWS\GLOBALIZATION\SORTING\SORTDEFAULT.NLS
